Martin Guillon,2018-05-01
Yukio Onozuka,2019-12-13
Nick O'Leary,2020-02-27
Gabriel Baciu,2014-12-31
Tyler Eastman,2019-07-22
Ben Hardill,2019-07-25
zobalogh,2014-11-05
Paul Williams,2019-05-30
Hideki Nakamura,2018-09-17
HirokiUchikawa,2018-10-19
Alice Ferrazzi,2016-09-15
cclauss,2018-08-15
Thierry Le Gal,2019-10-07
3Anology,2019-08-23
Masae Okada,2018-11-01
Jim Turner,2017-11-17
Klaus Landsdorf,2018-01-11
jonferreira,2018-11-15
juggledad,2019-10-25
Edward Vielmetti,2018-05-24
Andrei Ochmat,2019-03-27
dansu,2015-01-17
Gabe Johnson,2016-04-07
Chris Swan,2015-06-16
Linus Unnebäck,2017-02-16
jhr007,2014-09-01
Matthias Uttendorfer,2018-11-13
TJKoury,2019-10-17
wajnberg,2016-09-18
dceejay,2015-06-16
Aryeh Hoffman,2016-02-21
martiall,2017-07-14
Ross Cruickshank,2017-12-05
Tscherno,2020-02-01
Phi Dong,2019-10-19
telogis-nodered,2016-11-17
kazuhitoyokoi,2017-03-08
Andy Piper,2014-02-11
KatsuyaHoshii,2018-06-01
Anna Thomas,2015-01-05
Nathan Allen,2018-05-03
Jeremy Barlow,2018-09-19
jacktech24,2014-11-25
Paul Slater,2016-11-16
Simon Asp,2017-06-18
KentWood,2019-05-18
Jeston Tigchon,2017-09-07
kazntree,2019-01-20
Mark Hindess,2015-01-14
Richard Ruston,2015-06-03
Trisooma,2016-05-31
Qi Xiu,2018-03-18
Kunihiko Toumura,2019-08-05
Nicholas Humfrey,2016-11-18
Simon Hailes,2019-11-18
kitazaki,2019-10-09
jmikerq,2017-10-23
mblackstock,2018-05-08
Fabien Marchewka,2018-03-29
Lars Oldiges,2018-08-22
JeanCarl,2019-02-15
Cor Bosman,2017-04-22
iurly,2018-05-03
Nephiel,2018-10-24
Cody Walker,2015-04-24
Allen Boone,2015-06-29
zuhito,2017-01-09
Thiago Bustamante,2017-11-03
Joerg Wende,2018-12-22
bartbutenaers,2019-10-19
Kazuki Nakanishi,2018-03-21
Nick Niemeir,2014-01-16
Luis Montes,2014-03-29
Ryoichi Obara,2019-10-09
Arnaud Durand,2018-10-11
1ft-seabass,2019-10-11
tot92,2019-11-18
JIYE YU,2020-02-10
Monkey Do,2016-11-16
piyonakajima,2019-11-01
hbeeken,2015-02-03
David,2017-04-10
Nicholas O'Leary,2013-12-08
Nick Kasten,2019-03-05
Ted,2018-04-15
drwoods,2015-04-16
Sebastian Raff,2019-08-28
Christopher Hiller,2018-08-23
hobbyquaker,2019-05-04
Kyle Gordon,2014-08-29
Arlena Derksen,2020-01-03
delbozkester,2018-01-11
Ted Goddard,2014-04-17
Colin Law,2018-01-13
DurandA,2018-10-29
tilleul,2017-11-30
Kazuki-Nakanishi,2018-06-29
Osamu Katada,2018-10-03
cinhcet,2017-02-22
Patrik Åkerfeldt,2017-07-09
Nathanaël Lécaudé,2019-07-04
nakanishi,2018-12-04
李赫柱,2019-03-20
Nam Giang,2019-08-14
Mauricio Bonani,2019-10-14
Emil Öberg,2015-02-14
Henri Bouvier,2017-10-10
Stefan Machmeier,2018-03-01
Bernardo Belchior,2019-05-08
Jesse Naranjo,2016-07-03
Adam Hořčica,2016-11-16
timolehto,2017-06-29
Josh,2016-12-24
Nguyen Thai Vinh,2017-06-30
Akash Mugu,2018-10-22
Yuma Matsuura,2018-12-18
Antoine Aflalo,2016-09-17
Richlv,2017-09-21
mknj,2020-02-21
t4skforce,2018-07-31
Frank van de Pol,2014-04-21
Kosuke Akizuki,2017-08-24
Dave Conway-Jones,2020-02-25
YumaMatsuura,2018-07-10
btsimonh,2019-11-18
Hiroki Uchikawa,2019-02-01
Holger Will,2019-04-30
Jiye Yu,2020-01-30
meeki007,2018-12-05
Scott Yoshizawa,2015-06-01
Daisuke Baba,2017-01-19
Kroderia,2018-03-18
YuLun Shih,2018-10-12
Mike Blackstock,2017-11-30
Rocco Musolino,2018-01-11
Kazuhito Yokoi,2020-02-25
tjkoury,2014-07-02
Chaya Stern,2017-06-28
Amila Welihinda,2018-10-01
Arun Nattarayan,2018-11-30
James Thomas,2016-08-21
Dave C-J,2014-12-26
tseigo,2019-10-22
TAKAYA IDE,2018-10-23
To-Thi Hoang,2018-11-30
Andrey Bezugliy,2017-04-10
Hugobox,2017-12-22
Ibrahim Al-Mahfooz,2019-08-12
Hiroyasu Nishiyama,2019-12-31
mw75,2017-05-15
NAKAJIMA,Tomohiro
