Martin Guillon,3
Yukio Onozuka,1
Nick O'Leary,2575
Gabriel Baciu,1
Tyler Eastman,1
Ben Hardill,28
zobalogh,15
Paul Williams,1
Hideki Nakamura,28
HirokiUchikawa,46
Alice Ferrazzi,1
cclauss,1
Thierry Le Gal,1
3Anology,3
Masae Okada,1
Jim Turner,1
Klaus Landsdorf,1
jonferreira,3
juggledad,1
Edward Vielmetti,3
Andrei Ochmat,1
dansu,5
Gabe Johnson,1
Chris Swan,3
Linus Unnebäck,2
jhr007,2
Matthias Uttendorfer,1
TJKoury,5
wajnberg,3
dceejay,123
Aryeh Hoffman,1
martiall,1
Ross Cruickshank,1
Tscherno,1
Phi Dong,3
telogis-nodered,2
kazuhitoyokoi,1
Andy Piper,1
KatsuyaHoshii,5
Anna Thomas,50
Nathan Allen,1
Jeremy Barlow,3
jacktech24,1
Paul Slater,1
Simon Asp,1
KentWood,1
Jeston Tigchon,1
kazntree,1
Mark Hindess,69
Richard Ruston,1
Trisooma,1
Qi Xiu,3
Kunihiko Toumura,6
Nicholas Humfrey,3
Simon Hailes,16
kitazaki,1
jmikerq,2
mblackstock,11
Fabien Marchewka,1
Lars Oldiges,1
JeanCarl,1
Cor Bosman,1
iurly,1
Nephiel,1
Cody Walker,1
Allen Boone,12
zuhito,1
Thiago Bustamante,1
Joerg Wende,1
bartbutenaers,8
Kazuki Nakanishi,19
Nick Niemeir,3
Luis Montes,1
Ryoichi Obara,3
Arnaud Durand,1
1ft-seabass,1
tot92,3
JIYE YU,7
Monkey Do,1
piyonakajima,1
hbeeken,23
David,1
Nicholas O'Leary,156
Nick Kasten,3
Ted,1
drwoods,2
Sebastian Raff,2
Christopher Hiller,5
hobbyquaker,13
Kyle Gordon,1
Arlena Derksen,2
delbozkester,1
Ted Goddard,1
Colin Law,2
DurandA,1
tilleul,1
Kazuki-Nakanishi,24
Osamu Katada,2
cinhcet,1
Patrik Åkerfeldt,1
Nathanaël Lécaudé,44
nakanishi,22
李赫柱,3
Nam Giang,3
Mauricio Bonani,2
Emil Öberg,1
Henri Bouvier,1
Stefan Machmeier,1
Bernardo Belchior,2
Jesse Naranjo,1
Adam Hořčica,1
timolehto,1
Josh,2
Nguyen Thai Vinh,1
Akash Mugu,2
Yuma Matsuura,12
Antoine Aflalo,11
Richlv,1
mknj,1
t4skforce,1
Frank van de Pol,8
Kosuke Akizuki,1
Dave Conway-Jones,455
YumaMatsuura,2
btsimonh,5
Hiroki Uchikawa,23
Holger Will,2
Jiye Yu,1
meeki007,2
Scott Yoshizawa,5
Daisuke Baba,2
Kroderia,2
YuLun Shih,1
Mike Blackstock,1
Rocco Musolino,1
Kazuhito Yokoi,147
tjkoury,9
Chaya Stern,2
Amila Welihinda,1
Arun Nattarayan,1
James Thomas,2
Dave C-J,279
tseigo,3
TAKAYA IDE,1
To-Thi Hoang,1
Andrey Bezugliy,1
Hugobox,1
Ibrahim Al-Mahfooz,9
Hiroyasu Nishiyama,182
mw75,1
NAKAJIMA,1
